<?xml version="1.0" encoding="UTF-8"?>
<svg width="16px" height="16px" viewBox="0 0 16 16" version="1.1" xmlns="http://www.w3.org/2000/svg" xmlns:xlink="http://www.w3.org/1999/xlink">
    <!-- Generator: sketchtool 52.4 (67378) - http://www.bohemiancoding.com/sketch -->
    <title>7B0270D3-10D6-4A09-8632-9096041135A8_outlined</title>
    <desc>Created with sketchtool.</desc>
    <defs>
        <path d="M10,20 L14,20 L14,4 L10,4 L10,20 Z M4,20 L8,20 L8,12 L4,12 L4,20 Z M16,9 L16,20 L20,20 L20,9 L16,9 Z" id="path-1"></path>
    </defs>
    <g id="Page-1" stroke="none" stroke-width="1" fill="none" fill-rule="evenodd">
        <g id="Structure---overview" transform="translate(-32.000000, -144.000000)">
            <g id="Navigation">
                <g id="Nav">
                    <g>
                        <g id="icon/action/dashboard_24px-copy" transform="translate(28.000000, 140.000000)">
                            <mask id="mask-2" fill="white">
                                <use xlink:href="#path-1"></use>
                            </mask>
                            <g id="icon/av/equalizer_24px" fill-rule="nonzero"></g>
                            <g id="↳-Color" mask="url(#mask-2)" fill="#FFFFFF">
                                <rect id="Rectangle-13" x="0" y="0" width="24" height="24"></rect>
                            </g>
                        </g>
                    </g>
                </g>
            </g>
        </g>
    </g>
</svg>